[
    {
        "name": "Caterpillar CAT S62 Pro Dual",
        "price": 25523,
        "imgUrl": "./images/caterpillar-cat-s62-pro-dual-black-183804_sm.jpg",
        "venderCode": "14325",
        "color": "orange"
    },
    {
        "name": "Nokia 6303",
        "price": 4521,
        "imgUrl": "./images/Nokia-6303-Silver-131973_sm.jpg",
        "venderCode": "76543",
        "color": "silver"
    },
    {
        "name": "Xiaomi Redmi 9A 4/64GB",
        "price": 4727,
        "imgUrl": "./images/xiaomi-redmi-9a-4-64gb-granite-gray-215278_sm.jpg",
        "venderCode": "24345",
        "color": "gray"
    },
    {
        "name": "Google Pixel 5a 5G 6/128GB",
        "price": 20139,
        "imgUrl": "./images/google-pixel-5a-5g-6-128gb-mostly-black-2320711_sm.jpg",
        "venderCode": "28745",
        "color": "black"
    },
    {
        "name": "Realme GT Master Edition 6/128GB",
        "price": 13663,
        "imgUrl": "./images/realme-gt-master-edition-6-128gb-black-2320831_sm.jpg",
        "venderCode": "99132",
        "color": "black"
    },
    {
        "name": "Samsung Galaxy Z Fold 2 Duos 12/256Gb",
        "price": 55896,
        "imgUrl": "./images/samsung-galaxy-z-fold-2-duos-12-256gb-br-186655_sm.jpg",
        "venderCode": "13254",
        "color": "black"
    },
    {
        "name": "Samsung Galaxy S9 Plus Duos 128Gb",
        "price": 18495,
        "imgUrl": "./images/Samsung-Galaxy-S9-Plus-Duos-128Gb-Lilac-70280_sm.jpg",
        "venderCode": "69842",
        "color": "purple"
    },
    {
        "name": "Samsung Galaxy M62 2021 Duos 8/256Gb",
        "price": 20961,
        "imgUrl": "./images/samsung-galaxy-m62-2021-duos-8-256gb-blu-228314_sm.jpg",
        "venderCode": "12390",
        "color": "blue"
    },
    {
        "name": "Samsung Galaxy J5 Prime 32Gb Duos",
        "price": 7398,
        "imgUrl": "./images/Samsung-Galaxy-J5-Prime-3-32Gb-Duos-Gold-65975_sm.jpg",
        "venderCode": "49212",
        "color": "gold"
    },
    {
        "name": "Oppo a94 5g 128GB",
        "price": 6298,
        "imgUrl": "./images/oppo-a94-5g-8-128gb-fluid-black-europe-215896_sm.jpg",
        "venderCode": "87212",
        "color": "gold"
    }
]