// Jest Snapshot v1, https://goo.gl/fbAQLP

exports[`Header reders Should Header render 1`] = `
<DocumentFragment>
  <div
    class="headerWrapper"
  >
    <div
      class="header"
    >
      <a
        class="logo"
        href="/"
      >
        <span>
          Mobile
        </span>
        Store
      </a>
      <div
        class="navigation"
      >
        <a
          href="/favorite"
        >
          <img
            alt=""
            class="favorite"
            src="heart.svg"
          />
        </a>
        <div
          class="amountFavorite"
        >
          0
        </div>
        <a
          href="/cart"
        >
          <img
            alt=""
            class="shopingCart"
            src="shopingCart.svg"
          />
        </a>
        <div
          class="amountCart"
        >
          0
        </div>
      </div>
    </div>
  </div>
</DocumentFragment>
`;
